{
  "initialUrl": "https://www.cvjmbaden.de/app/home",
  "imprintLink": "https://www.cvjmbaden.de/website/de/cb/impressum",
  "privacyPolicyLink": "https://www.cvjmbaden.de/website/de/cb/datenschutz",
  "allowedHosts": [
    "www.cvjmbaden.de",
    "www.cvjm-marienhof.de",
    "www.schloss-unteroewisheim.de"
  ],
  "menuConfig": [
    {
      "type": "link_entry",
      "label": "Home",
      "path": "https://www.cvjmbaden.de/app/home",
      "icon": {
        "codePoint": "0xe88a"
      }
    },
    {
      "type": "link_entry",
      "label": "News",
      "path": "https://www.cvjmbaden.de/news?action=view_navigator&category_id=1",
      "icon": {
        "codePoint": "0xf009"
      }
    },
    {
      "type": "link_entry",
      "label": "Events",
      "path": "https://www.cvjmbaden.de/website/de/cb/erleben",
      "icon": {
        "codePoint": "0xe878"
      }
    },
    {
      "type": "link_entry",
      "label": "Media",
      "path": "https://www.cvjmbaden.de/website/de/cb/media",
      "icon": {
        "codePoint": "0xe037"
      }
    },
    {
      "type": "link_entry",
      "label": "Publikationen",
      "path": "https://www.cvjmbaden.de/website/de/cb/media/publikationen",
      "icon": {
        "codePoint": "0xe0e0"
      }
    },
    {
      "type": "link_entry",
      "label": "Spenden",
      "path": "https://www.cvjmbaden.de/website/de/cb/ueber_uns/spenden",
      "icon": {
        "codePoint": "0xea70"
      }
    },
    {
      "type": "divider"
    },
    {
      "type": "link_entry",
      "label": "Kontakt",
      "path": "https://www.cvjmbaden.de/website/de/cb/ueber_uns/kontakt",
      "icon": {
        "codePoint": "0xe158"
      }
    },
    {
      "type": "external_link",
      "label": "Webseite",
      "path": "https://www.cvjmbaden.de",
      "icon": {
        "codePoint": "0xe894"
      }
    },
    {
      "type": "divider"
    },
    {
      "type": "about_app_popup",
      "label": "Über die App",
      "icon": {
        "codePoint": "0xe88e"
      }
    }
  ]
}