<?xml version="1.0" encoding="UTF-8" standalone="no"?>
<svg
   id="Ebene_1"
   viewBox="0 0 321.13 278.11"
   version="1.1"
   sodipodi:docname="logo.svg"
   inkscape:version="1.2.2 (732a01da63, 2022-12-09)"
   xmlns:inkscape="http://www.inkscape.org/namespaces/inkscape"
   xmlns:sodipodi="http://sodipodi.sourceforge.net/DTD/sodipodi-0.dtd"
   xmlns="http://www.w3.org/2000/svg"
   xmlns:svg="http://www.w3.org/2000/svg">
  <sodipodi:namedview
     id="namedview29"
     pagecolor="#505050"
     bordercolor="#eeeeee"
     borderopacity="1"
     inkscape:showpageshadow="0"
     inkscape:pageopacity="0"
     inkscape:pagecheckerboard="0"
     inkscape:deskcolor="#505050"
     showgrid="false"
     inkscape:zoom="1.4904175"
     inkscape:cx="165.38989"
     inkscape:cy="99.971985"
     inkscape:window-width="1920"
     inkscape:window-height="1009"
     inkscape:window-x="-8"
     inkscape:window-y="-8"
     inkscape:window-maximized="1"
     inkscape:current-layer="Ebene_1" />
  <path
     class="cls-2"
     d="m80.3,46.36l80.27,139.03L240.83,46.36H80.3ZM321.13,0l-160.57,278.11L0,0h321.13Z"
     id="path6"
     style="fill:#e2003b;fill-opacity:1" />
  <rect
     class="cls-3"
     x="0"
     y="69.44"
     width="321.13"
     height="69.54"
     id="rect8"
     style="fill:#1a171b;fill-opacity:1" />
  <polygon
     class="cls-1"
     points="119.88 114.97 136.32 80.01 148.56 80.01 126.03 128.41 113.69 128.41 91.88 80.01 103.69 80.01 119.88 114.97"
     id="polygon10"
     style="fill:#ffffff;fill-opacity:1" />
  <path
     class="cls-1"
     d="m210.21,80.01h-34.28v9.22h23.16v17.96c0,8.63-6.67,12.55-11.88,12.55-3.61,0-9.56-1.74-11.69-9.08l-9.34,2.27c1.5,7.14,9.04,16.65,21.55,16.65s22.48-8.31,22.48-25.69v-23.87Z"
     id="path12"
     style="fill:#ffffff;fill-opacity:1" />
  <polygon
     class="cls-1"
     points="297.15 128.51 297.15 80.07 286.62 80.07 269.15 102.91 251.67 80.07 241.14 80.07 241.14 128.51 252.27 128.51 252.27 97.33 267.39 117.04 270.91 117.04 286.03 97.33 286.03 128.51 297.15 128.51"
     id="polygon14"
     style="fill:#ffffff;fill-opacity:1" />
  <path
     class="cls-1"
     d="m48.45,78.34h.02-.03.02m20.95,8.1c-5.12-5.28-12.67-8.1-20.95-8.1-15.06,0-27.73,9.26-27.73,25.84s12.68,25.85,27.73,25.85c9,0,17.13-3.34,22.22-9.54l-8.69-6.36c-3.06,3.95-8.03,6.07-13.53,6.07-9.07,0-16.72-5.74-16.72-16.02s7.64-16.01,16.72-16.01h-.01.02-.01c5.08,0,9.71,1.8,12.8,5.19l8.15-6.92Z"
     id="path16"
     style="fill:#ffffff;fill-opacity:1" />
  <path
     d="m206.3,255.17l4.31-7.46c2.01-3.48,2.75-4.47,4.19-5.48,1.88-1.34,3.86-1.45,5.75-.36,2.27,1.31,2.97,3.35,2.4,6.91,2.46-3.22,5.52-4.09,8.53-2.35,2.33,1.35,3.57,3.94,3.23,6.88-.18,1.78-.89,3.45-2.9,6.94l-4.18,7.24-21.33-12.33Zm12.57-2.18c.67-1.16.89-1.91.85-2.64-.1-.94-.66-1.8-1.56-2.33-.99-.57-2.08-.53-2.85.07-.39.31-.73.74-1.35,1.81l-.58,1.01,5.03,2.9.47-.81Zm9.48,5.36c.89-1.53,1.13-2.32.92-3.27-.21-1.04-.89-1.94-1.91-2.53-1.18-.68-2.42-.69-3.33,0-.46.36-.84.86-1.51,2.02l-.71,1.22,6.01,3.48.52-.91Z"
     id="path18"
     style="fill:#1a171b;fill-opacity:1" />
  <path
     d="m236.97,239.59l3.93,4.94-2.84,4.92-16.41-20.85,3.05-5.26,25.91,4.4-3.85,6.67-6.05-1.28-3.73,6.45Zm-8.06-9.21l5.29,6.19,2.55-4.42-7.85-1.77Z"
     id="path20"
     style="fill:#1a171b;fill-opacity:1" />
  <path
     d="m230.53,213.25l3.82-6.61c1.72-2.98,2.01-3.4,3.08-4.66,3.95-4.61,9.4-5.56,14.61-2.55,3.93,2.27,6.29,5.81,6.57,9.82.21,2.88-.64,5.77-2.73,9.38l-4.02,6.96-21.33-12.33Zm21.45,2.74c1.18-2.04,1.49-3.45,1-4.98-.49-1.66-2.29-3.62-4.6-4.96-2.46-1.43-4.82-1.7-6.66-.8-1.17.54-1.93,1.35-2.9,3.01l-.61,1.06,13.21,7.63.56-.97Z"
     id="path22"
     style="fill:#1a171b;fill-opacity:1" />
  <path
     d="m244.07,189.81l7.33-12.69,4.06,2.35-3.71,6.42,4.09,2.36,3.62-6.26,4.06,2.35-3.62,6.27,5.05,2.92,4.43-7.68,4.06,2.35-8.06,13.95-21.33-12.33Z"
     id="path24"
     style="fill:#1a171b;fill-opacity:1" />
  <path
     d="m253.95,172.73l2.5-4.33,17.12-2.23-11.86-6.86,2.84-4.92,21.33,12.33-2.3,3.98-17.54,2.45,12.09,6.98-2.85,4.92-21.32-12.33Z"
     id="path26"
     style="fill:#1a171b;fill-opacity:1" />
</svg>
